......
----------------------------------------------------------------------
Ran 6 tests in 0.001s

OK
Name             Stmts   Miss Branch BrPart  Cover   Missing
------------------------------------------------------------
Netflix.py          59      3      6      1    94%   26-29, 22->26
TestNetflix.py      33      0      0      0   100%
------------------------------------------------------------
TOTAL               92      3      6      1    96%

