.........
----------------------------------------------------------------------
Ran 9 tests in 0.001s

OK
Name             Stmts   Miss Branch BrPart  Cover   Missing
------------------------------------------------------------
Netflix.py          70      5     12      4    89%   29-32, 134, 136, 25->29, 133->134, 135->136, 137->141
TestNetflix.py      47      0      0      0   100%
------------------------------------------------------------
TOTAL              117      5     12      4    93%
