.........
----------------------------------------------------------------------
Ran 9 tests in 0.001s

OK
Name             Stmts   Miss Branch BrPart  Cover   Missing
------------------------------------------------------------
Netflix.py          47      3      8      1    93%   26-29, 22->26
TestNetflix.py      62      0      0      0   100%
------------------------------------------------------------
TOTAL              109      3      8      1    97%

